Month,Score,QCount
"2008-08-01 00:00:00","131","1"
"2008-09-01 00:00:00","7","1"
"2008-11-01 00:00:00","3","1"
"2008-12-01 00:00:00","226","6"
"2009-01-01 00:00:00","80","4"
"2009-02-01 00:00:00","4","2"
"2009-04-01 00:00:00","41","5"
"2009-05-01 00:00:00","14","4"
"2009-06-01 00:00:00","40","3"
"2009-07-01 00:00:00","123","8"
"2009-08-01 00:00:00","20","3"
"2009-09-01 00:00:00","50","4"
"2009-10-01 00:00:00","35","2"
"2009-11-01 00:00:00","10","4"
"2009-12-01 00:00:00","28","7"
"2010-01-01 00:00:00","58","12"
"2010-02-01 00:00:00","44","8"
"2010-03-01 00:00:00","202","23"
"2010-04-01 00:00:00","75","15"
"2010-05-01 00:00:00","112","20"
"2010-06-01 00:00:00","120","25"
"2010-07-01 00:00:00","124","23"
"2010-08-01 00:00:00","65","21"
"2010-09-01 00:00:00","112","26"
"2010-10-01 00:00:00","133","17"
"2010-11-01 00:00:00","107","22"
"2010-12-01 00:00:00","111","27"
"2011-01-01 00:00:00","89","24"
"2011-02-01 00:00:00","59","28"
"2011-03-01 00:00:00","174","42"
"2011-04-01 00:00:00","201","48"
"2011-05-01 00:00:00","184","44"
"2011-06-01 00:00:00","146","47"
"2011-07-01 00:00:00","162","57"
"2011-08-01 00:00:00","114","40"
"2011-09-01 00:00:00","154","54"
"2011-10-01 00:00:00","119","60"
"2011-11-01 00:00:00","117","63"
"2011-12-01 00:00:00","142","69"
"2012-01-01 00:00:00","226","80"
"2012-02-01 00:00:00","234","89"
"2012-03-01 00:00:00","225","93"
"2012-04-01 00:00:00","228","103"
"2012-05-01 00:00:00","186","104"
"2012-06-01 00:00:00","342","133"
"2012-07-01 00:00:00","334","155"
"2012-08-01 00:00:00","204","107"
"2012-09-01 00:00:00","344","109"
"2012-10-01 00:00:00","308","144"
"2012-11-01 00:00:00","224","132"
"2012-12-01 00:00:00","202","107"
"2013-01-01 00:00:00","368","140"
"2013-02-01 00:00:00","154","126"
"2013-03-01 00:00:00","199","146"
"2013-04-01 00:00:00","335","180"
"2013-05-01 00:00:00","242","147"
"2013-06-01 00:00:00","245","153"
"2013-07-01 00:00:00","196","163"
"2013-08-01 00:00:00","178","152"
"2013-09-01 00:00:00","204","177"
"2013-10-01 00:00:00","213","181"
"2013-11-01 00:00:00","155","155"
"2013-12-01 00:00:00","172","159"
"2014-01-01 00:00:00","177","130"
"2014-02-01 00:00:00","139","157"
"2014-03-01 00:00:00","246","195"
"2014-04-01 00:00:00","195","197"
"2014-05-01 00:00:00","118","162"
"2014-06-01 00:00:00","144","167"
"2014-07-01 00:00:00","157","152"
"2014-08-01 00:00:00","114","145"
"2014-09-01 00:00:00","174","158"
"2014-10-01 00:00:00","104","158"
"2014-11-01 00:00:00","144","167"
"2014-12-01 00:00:00","128","166"
"2015-01-01 00:00:00","114","137"
"2015-02-01 00:00:00","109","160"
"2015-03-01 00:00:00","101","201"
"2015-04-01 00:00:00","136","216"
"2015-05-01 00:00:00","134","187"
"2015-06-01 00:00:00","113","178"
"2015-07-01 00:00:00","108","153"
"2015-08-01 00:00:00","96","135"
"2015-09-01 00:00:00","68","156"
"2015-10-01 00:00:00","87","158"
"2015-11-01 00:00:00","85","132"
"2015-12-01 00:00:00","121","154"
"2016-01-01 00:00:00","73","136"
"2016-02-01 00:00:00","77","127"
"2016-03-01 00:00:00","84","132"
"2016-04-01 00:00:00","60","181"
"2016-05-01 00:00:00","72","166"
"2016-06-01 00:00:00","69","180"
"2016-07-01 00:00:00","36","136"
"2016-08-01 00:00:00","107","163"
"2016-09-01 00:00:00","71","139"
"2016-10-01 00:00:00","64","167"
"2016-11-01 00:00:00","55","136"
"2016-12-01 00:00:00","34","127"
"2017-01-01 00:00:00","65","102"
"2017-02-01 00:00:00","43","128"
"2017-03-01 00:00:00","40","157"
"2017-04-01 00:00:00","15","64"