Month,Score,QCount
"2008-08-01 00:00:00","131","1"
"2008-09-01 00:00:00","138","2"
"2008-11-01 00:00:00","141","3"
"2008-12-01 00:00:00","367","9"
"2009-01-01 00:00:00","447","13"
"2009-02-01 00:00:00","451","15"
"2009-04-01 00:00:00","492","20"
"2009-05-01 00:00:00","506","24"
"2009-06-01 00:00:00","546","27"
"2009-07-01 00:00:00","668","35"
"2009-08-01 00:00:00","688","38"
"2009-09-01 00:00:00","738","42"
"2009-10-01 00:00:00","773","44"
"2009-11-01 00:00:00","783","48"
"2009-12-01 00:00:00","811","55"
"2010-01-01 00:00:00","869","67"
"2010-02-01 00:00:00","913","75"
"2010-03-01 00:00:00","1114","98"
"2010-04-01 00:00:00","1189","113"
"2010-05-01 00:00:00","1301","133"
"2010-06-01 00:00:00","1421","158"
"2010-07-01 00:00:00","1545","181"
"2010-08-01 00:00:00","1610","202"
"2010-09-01 00:00:00","1721","228"
"2010-10-01 00:00:00","1853","245"
"2010-11-01 00:00:00","1960","267"
"2010-12-01 00:00:00","2071","294"
"2011-01-01 00:00:00","2160","318"
"2011-02-01 00:00:00","2219","346"
"2011-03-01 00:00:00","2393","388"
"2011-04-01 00:00:00","2594","436"
"2011-05-01 00:00:00","2778","480"
"2011-06-01 00:00:00","2923","527"
"2011-07-01 00:00:00","3085","584"
"2011-08-01 00:00:00","3199","624"
"2011-09-01 00:00:00","3353","678"
"2011-10-01 00:00:00","3472","738"
"2011-11-01 00:00:00","3589","801"
"2011-12-01 00:00:00","3731","870"
"2012-01-01 00:00:00","3957","950"
"2012-02-01 00:00:00","4191","1039"
"2012-03-01 00:00:00","4416","1132"
"2012-04-01 00:00:00","4643","1235"
"2012-05-01 00:00:00","4829","1339"
"2012-06-01 00:00:00","5169","1472"
"2012-07-01 00:00:00","5501","1627"
"2012-08-01 00:00:00","5705","1734"
"2012-09-01 00:00:00","6047","1843"
"2012-10-01 00:00:00","6355","1987"
"2012-11-01 00:00:00","6578","2119"
"2012-12-01 00:00:00","6779","2226"
"2013-01-01 00:00:00","7142","2366"
"2013-02-01 00:00:00","7294","2492"
"2013-03-01 00:00:00","7493","2638"
"2013-04-01 00:00:00","7824","2818"
"2013-05-01 00:00:00","8065","2965"
"2013-06-01 00:00:00","8309","3118"
"2013-07-01 00:00:00","8505","3281"
"2013-08-01 00:00:00","8683","3433"
"2013-09-01 00:00:00","8886","3610"
"2013-10-01 00:00:00","9099","3791"
"2013-11-01 00:00:00","9254","3946"
"2013-12-01 00:00:00","9425","4105"
"2014-01-01 00:00:00","9600","4235"
"2014-02-01 00:00:00","9738","4393"
"2014-03-01 00:00:00","9984","4588"
"2014-04-01 00:00:00","10179","4785"
"2014-05-01 00:00:00","10296","4947"
"2014-06-01 00:00:00","10438","5114"
"2014-07-01 00:00:00","10595","5266"
"2014-08-01 00:00:00","10709","5411"
"2014-09-01 00:00:00","10882","5569"
"2014-10-01 00:00:00","10986","5727"
"2014-11-01 00:00:00","11129","5894"
"2014-12-01 00:00:00","11256","6060"
"2015-01-01 00:00:00","11370","6197"
"2015-02-01 00:00:00","11479","6357"
"2015-03-01 00:00:00","11579","6558"
"2015-04-01 00:00:00","11715","6774"
"2015-05-01 00:00:00","11848","6961"
"2015-06-01 00:00:00","11959","7139"
"2015-07-01 00:00:00","12067","7292"
"2015-08-01 00:00:00","12162","7427"
"2015-09-01 00:00:00","12230","7583"
"2015-10-01 00:00:00","12317","7741"
"2015-11-01 00:00:00","12401","7873"
"2015-12-01 00:00:00","12522","8027"
"2016-01-01 00:00:00","12594","8163"
"2016-02-01 00:00:00","12671","8290"
"2016-03-01 00:00:00","12755","8422"
"2016-04-01 00:00:00","12815","8607"
"2016-05-01 00:00:00","12887","8773"
"2016-06-01 00:00:00","12956","8953"
"2016-07-01 00:00:00","12990","9089"
"2016-08-01 00:00:00","13096","9252"
"2016-09-01 00:00:00","13167","9391"
"2016-10-01 00:00:00","13231","9558"
"2016-11-01 00:00:00","13286","9694"
"2016-12-01 00:00:00","13319","9823"
"2017-01-01 00:00:00","13385","9925"
"2017-02-01 00:00:00","13428","10053"
"2017-03-01 00:00:00","13465","10212"
"2017-04-01 00:00:00","13468","10242"